…
``` r
library(tidyverse)

ny_noaa |>
  mutate(year = year(date),
    month = month(date),
    day = day(date),
    tmax = as.numeric(tmax) / 10,
    tmin = as.numeric(tmin) / 10,
    prcp = prcp / 10,  
    snow = snow / 10)
```

    ## # A tibble: 2,595,176 × 10
    ##    id          date        prcp  snow  snwd  tmax  tmin  year month   day
    ##    <chr>       <date>     <dbl> <dbl> <int> <dbl> <dbl> <dbl> <dbl> <int>
    ##  1 US1NYAB0001 2007-11-01    NA    NA    NA    NA    NA  2007    11     1
    ##  2 US1NYAB0001 2007-11-02    NA    NA    NA    NA    NA  2007    11     2
    ##  3 US1NYAB0001 2007-11-03    NA    NA    NA    NA    NA  2007    11     3
    ##  4 US1NYAB0001 2007-11-04    NA    NA    NA    NA    NA  2007    11     4
    ##  5 US1NYAB0001 2007-11-05    NA    NA    NA    NA    NA  2007    11     5
    ##  6 US1NYAB0001 2007-11-06    NA    NA    NA    NA    NA  2007    11     6
    ##  7 US1NYAB0001 2007-11-07    NA    NA    NA    NA    NA  2007    11     7
    ##  8 US1NYAB0001 2007-11-08    NA    NA    NA    NA    NA  2007    11     8
    ##  9 US1NYAB0001 2007-11-09    NA    NA    NA    NA    NA  2007    11     9
    ## 10 US1NYAB0001 2007-11-10    NA    NA    NA    NA    NA  2007    11    10
    ## # ℹ 2,595,166 more rows
…
july2024 = read_csv("./citibike/july2024.csv") |>
  janitor::clean_names() |>
    mutate(month = "July",
         year = "2024")

citibike = bind_rows(jan2020, july2020, jan2024, july2024) |>
  select(ride_id, year, month, weekdays, everything())

citibike
```

    ## # A tibble: 99,485 × 9
    ##    ride_id        year  month weekdays rideable_type duration start_station_name
    ##    <chr>          <chr> <chr> <chr>    <chr>            <dbl> <chr>             
    ##  1 4BE06CB33B037… 2020  Janu… Tuesday  classic_bike     15.3  Columbus Ave & W …
    ##  2 26886E0349744… 2020  Janu… Wednesd… classic_bike      5.31 2 Ave & E 96 St   
    ##  3 24DC56060EBE6… 2020  Janu… Friday   classic_bike      9.69 Columbia St & Riv…
    ##  4 EEDC1053582D0… 2020  Janu… Sunday   classic_bike      7.00 W 84 St & Columbu…
    ##  5 2CD4BD4CEE2E5… 2020  Janu… Friday   classic_bike      2.85 Forsyth St & Broo…
    ##  6 E18682F9A4E50… 2020  Janu… Sunday   classic_bike     25.5  Allen St & Hester…
    ##  7 B9B2E8960A71A… 2020  Janu… Sunday   classic_bike      3.65 Lafayette St & Je…
    ##  8 DEF8F50495E64… 2020  Janu… Sunday   classic_bike     38.3  28 Ave & 44 St    
    ##  9 17D44DA993F32… 2020  Janu… Thursday classic_bike     38.5  Barrow St & Hudso…
    ## 10 0FD113A309327… 2020  Janu… Tuesday  classic_bike      6.52 Carlton Ave & Par…
    ## # ℹ 99,475 more rows
    ## # ℹ 2 more variables: end_station_name <chr>, member_casual <chr>
…
